module github.com/go-kratos/kratos/v2

go 1.16

require (
	github.com/envoyproxy/protoc-gen-validate v0.6.7 // indirect
	github.com/fsnotify/fsnotify v1.5.4
	github.com/go-kratos/aegis v0.1.2
	github.com/go-playground/form/v4 v4.2.0
	github.com/golang-jwt/jwt/v4 v4.4.1
	github.com/google/uuid v1.3.0
	github.com/gorilla/mux v1.8.0
	github.com/imdario/mergo v0.3.12
	go.opentelemetry.io/otel v1.7.0
	go.opentelemetry.io/otel/sdk v1.7.0
	go.opentelemetry.io/otel/trace v1.7.0
	golang.org/x/sync v0.0.0-20220513210516-0976fa681c29
	google.golang.org/genproto v0.0.0-20220519153652-3a47de7e79bd
	google.golang.org/grpc v1.46.2
	google.golang.org/grpc/cmd/protoc-gen-go-grpc v1.2.0 // indirect
	google.golang.org/protobuf v1.28.0
	gopkg.in/yaml.v3 v3.0.0
)
